{
  "sections": [
    {
      "id": 12587993030937,
      "url": "https://talentabymekari.zendesk.com/api/v2/help_center/id/sections/12587993030937.json",
      "html_url": "https://help-center.talenta.co/hc/id/sections/12587993030937-Finance",
      "category_id": 12587872936985,
      "position": 7,
      "sorting": "manual",
      "created_at": "2022-11-17T05:02:09Z",
      "updated_at": "2026-02-16T07:39:12Z",
      "name": "Finance",
      "description": "",
      "locale": "id",
      "source_locale": "id",
      "outdated": false,
      "parent_section_id": null,
      "theme_template": "section_page"
    },
    {
      "id": 10959028048665,
      "url": "https://talentabymekari.zendesk.com/api/v2/help_center/id/sections/10959028048665.json",
      "html_url": "https://help-center.talenta.co/hc/id/sections/10959028048665-Custom-Dashboard",
      "category_id": 8889773093273,
      "position": 7,
      "sorting": "manual",
      "created_at": "2022-09-28T09:13:47Z",
      "updated_at": "2024-08-23T21:26:41Z",
      "name": "Custom Dashboard",
      "description": "",
      "locale": "id",
      "source_locale": "id",
      "outdated": false,
      "parent_section_id": null,
      "theme_template": "section_page"
    },
    {
      "id": 8938280207513,
      "url": "https://talentabymekari.zendesk.com/api/v2/help_center/id/sections/8938280207513.json",
      "html_url": "https://help-center.talenta.co/hc/id/sections/8938280207513-Account",
      "category_id": 8889768905369,
      "position": 7,
      "sorting": "manual",
      "created_at": "2022-07-28T08:41:16Z",
      "updated_at": "2025-06-17T06:44:04Z",
      "name": "Account",
      "description": "",
      "locale": "id",
      "source_locale": "id",
      "outdated": false,
      "parent_section_id": null,
      "theme_template": "section_page"
    },
    {
      "id": 8928980527385,
      "url": "https://talentabymekari.zendesk.com/api/v2/help_center/id/sections/8928980527385.json",
      "html_url": "https://help-center.talenta.co/hc/id/sections/8928980527385-Users",
      "category_id": 8889746065177,
      "position": 7,
      "sorting": "manual",
      "created_at": "2022-07-28T04:22:40Z",
      "updated_at": "2026-03-26T08:12:25Z",
      "name": "Users",
      "description": "",
      "locale": "id",
      "source_locale": "id",
      "outdated": false,
      "parent_section_id": null,
      "theme_template": "section_page"
    },
    {
      "id": 52443111697945,
      "url": "https://talentabymekari.zendesk.com/api/v2/help_center/id/sections/52443111697945.json",
      "html_url": "https://help-center.talenta.co/hc/id/sections/52443111697945-Time-Reports",
      "category_id": 8889709180825,
      "position": 8,
      "sorting": "manual",
      "created_at": "2025-11-14T10:50:33Z",
      "updated_at": "2025-11-14T11:11:25Z",
      "name": "Time Reports",
      "description": "",
      "locale": "id",
      "source_locale": "id",
      "outdated": false,
      "parent_section_id": null,
      "theme_template": "section_page"
    },
    {
      "id": 12587978251289,
      "url": "https://talentabymekari.zendesk.com/api/v2/help_center/id/sections/12587978251289.json",
      "html_url": "https://help-center.talenta.co/hc/id/sections/12587978251289-Payroll",
      "category_id": 12587872936985,
      "position": 8,
      "sorting": "manual",
      "created_at": "2022-11-17T05:02:23Z",
      "updated_at": "2026-02-16T07:39:12Z",
      "name": "Payroll",
      "description": "",
      "locale": "id",
      "source_locale": "id",
      "outdated": false,
      "parent_section_id": null,
      "theme_template": "section_page"
    },
    {
      "id": 12584983504537,
      "url": "https://talentabymekari.zendesk.com/api/v2/help_center/id/sections/12584983504537.json",
      "html_url": "https://help-center.talenta.co/hc/id/sections/12584983504537-Settings",
      "category_id": 8889733088025,
      "position": 8,
      "sorting": "manual",
      "created_at": "2022-11-17T03:41:13Z",
      "updated_at": "2026-04-24T05:41:08Z",
      "name": "Settings",
      "description": "",
      "locale": "id",
      "source_locale": "id",
      "outdated": false,
      "parent_section_id": null,
      "theme_template": "section_page"
    },
    {
      "id": 8938274913433,
      "url": "https://talentabymekari.zendesk.com/api/v2/help_center/id/sections/8938274913433.json",
      "html_url": "https://help-center.talenta.co/hc/id/sections/8938274913433-Talenta-Portal",
      "category_id": 8889768905369,
      "position": 8,
      "sorting": "manual",
      "created_at": "2022-07-28T08:41:25Z",
      "updated_at": "2024-08-23T18:38:21Z",
      "name": "Talenta Portal",
      "description": "",
      "locale": "id",
      "source_locale": "id",
      "outdated": false,
      "parent_section_id": null,
      "theme_template": "section_page"
    },
    {
      "id": 8928997462937,
      "url": "https://talentabymekari.zendesk.com/api/v2/help_center/id/sections/8928997462937.json",
      "html_url": "https://help-center.talenta.co/hc/id/sections/8928997462937-Integrations",
      "category_id": 51356565735577,
      "position": 8,
      "sorting": "manual",
      "created_at": "2022-07-28T04:22:49Z",
      "updated_at": "2026-04-15T04:21:30Z",
      "name": "Integrations",
      "description": "",
      "locale": "id",
      "source_locale": "id",
      "outdated": false,
      "parent_section_id": null,
      "theme_template": "section_page"
    },
    {
      "id": 27392484854425,
      "url": "https://talentabymekari.zendesk.com/api/v2/help_center/id/sections/27392484854425.json",
      "html_url": "https://help-center.talenta.co/hc/id/sections/27392484854425-Payroll-Allocation",
      "category_id": 8889715454745,
      "position": 9,
      "sorting": "manual",
      "created_at": "2024-01-09T07:21:54Z",
      "updated_at": "2025-10-29T07:33:59Z",
      "name": "Payroll Allocation",
      "description": "",
      "locale": "id",
      "source_locale": "id",
      "outdated": false,
      "parent_section_id": null,
      "theme_template": "section_page"
    },
    {
      "id": 12588047320729,
      "url": "https://talentabymekari.zendesk.com/api/v2/help_center/id/sections/12588047320729.json",
      "html_url": "https://help-center.talenta.co/hc/id/sections/12588047320729-Inbox",
      "category_id": 12587872936985,
      "position": 9,
      "sorting": "manual",
      "created_at": "2022-11-17T05:02:36Z",
      "updated_at": "2026-02-16T07:39:12Z",
      "name": "Inbox",
      "description": "",
      "locale": "id",
      "source_locale": "id",
      "outdated": false,
      "parent_section_id": null,
      "theme_template": "section_page"
    },
    {
      "id": 10869042952473,
      "url": "https://talentabymekari.zendesk.com/api/v2/help_center/id/sections/10869042952473.json",
      "html_url": "https://help-center.talenta.co/hc/id/sections/10869042952473-Others",
      "category_id": 8889768905369,
      "position": 9,
      "sorting": "manual",
      "created_at": "2022-09-26T05:07:32Z",
      "updated_at": "2024-08-23T14:32:21Z",
      "name": "Others",
      "description": "",
      "locale": "id",
      "source_locale": "id",
      "outdated": false,
      "parent_section_id": null,
      "theme_template": "section_page"
    },
    {
      "id": 8907933442457,
      "url": "https://talentabymekari.zendesk.com/api/v2/help_center/id/sections/8907933442457.json",
      "html_url": "https://help-center.talenta.co/hc/id/sections/8907933442457-Files",
      "category_id": 8889744965401,
      "position": 9,
      "sorting": "manual",
      "created_at": "2022-07-27T10:48:29Z",
      "updated_at": "2025-12-04T09:35:09Z",
      "name": "Files",
      "description": "",
      "locale": "id",
      "source_locale": "id",
      "outdated": false,
      "parent_section_id": null,
      "theme_template": "section_page"
    },
    {
      "id": 38040889729561,
      "url": "https://talentabymekari.zendesk.com/api/v2/help_center/id/sections/38040889729561.json",
      "html_url": "https://help-center.talenta.co/hc/id/sections/38040889729561-Workflows",
      "category_id": 8889746065177,
      "position": 10,
      "sorting": "manual",
      "created_at": "2024-09-23T04:36:29Z",
      "updated_at": "2024-09-23T06:42:15Z",
      "name": "Workflows",
      "description": "",
      "locale": "id",
      "source_locale": "id",
      "outdated": false,
      "parent_section_id": null,
      "theme_template": "section_page"
    },
    {
      "id": 12588032467097,
      "url": "https://talentabymekari.zendesk.com/api/v2/help_center/id/sections/12588032467097.json",
      "html_url": "https://help-center.talenta.co/hc/id/sections/12588032467097-Company-Productivity",
      "category_id": 12587872936985,
      "position": 10,
      "sorting": "manual",
      "created_at": "2022-11-17T05:02:49Z",
      "updated_at": "2026-04-13T07:30:19Z",
      "name": "Company & Productivity",
      "description": "",
      "locale": "id",
      "source_locale": "id",
      "outdated": false,
      "parent_section_id": null,
      "theme_template": "section_page"
    },
    {
      "id": 8907820719641,
      "url": "https://talentabymekari.zendesk.com/api/v2/help_center/id/sections/8907820719641.json",
      "html_url": "https://help-center.talenta.co/hc/id/sections/8907820719641-Reports",
      "category_id": 8889715454745,
      "position": 10,
      "sorting": "manual",
      "created_at": "2022-07-27T10:45:23Z",
      "updated_at": "2025-11-03T13:01:38Z",
      "name": "Reports",
      "description": "",
      "locale": "id",
      "source_locale": "id",
      "outdated": false,
      "parent_section_id": null,
      "theme_template": "section_page"
    },
    {
      "id": 12588051539353,
      "url": "https://talentabymekari.zendesk.com/api/v2/help_center/id/sections/12588051539353.json",
      "html_url": "https://help-center.talenta.co/hc/id/sections/12588051539353-Settings",
      "category_id": 12587872936985,
      "position": 11,
      "sorting": "manual",
      "created_at": "2022-11-17T05:03:07Z",
      "updated_at": "2026-04-09T08:09:10Z",
      "name": "Settings",
      "description": "",
      "locale": "id",
      "source_locale": "id",
      "outdated": false,
      "parent_section_id": null,
      "theme_template": "section_page"
    },
    {
      "id": 8907900127641,
      "url": "https://talentabymekari.zendesk.com/api/v2/help_center/id/sections/8907900127641.json",
      "html_url": "https://help-center.talenta.co/hc/id/sections/8907900127641-Report-Builder",
      "category_id": 8889744965401,
      "position": 11,
      "sorting": "manual",
      "created_at": "2022-07-27T10:48:12Z",
      "updated_at": "2025-10-08T10:05:41Z",
      "name": "Report Builder",
      "description": "",
      "locale": "id",
      "source_locale": "id",
      "outdated": false,
      "parent_section_id": null,
      "theme_template": "section_page"
    },
    {
      "id": 15056884285849,
      "url": "https://talentabymekari.zendesk.com/api/v2/help_center/id/sections/15056884285849.json",
      "html_url": "https://help-center.talenta.co/hc/id/sections/15056884285849-Insights",
      "category_id": 12587872936985,
      "position": 12,
      "sorting": "manual",
      "created_at": "2023-01-31T03:22:57Z",
      "updated_at": "2026-02-16T07:39:12Z",
      "name": "Insights",
      "description": "",
      "locale": "id",
      "source_locale": "id",
      "outdated": false,
      "parent_section_id": null,
      "theme_template": "section_page"
    },
    {
      "id": 8907932905497,
      "url": "https://talentabymekari.zendesk.com/api/v2/help_center/id/sections/8907932905497.json",
      "html_url": "https://help-center.talenta.co/hc/id/sections/8907932905497-Forms-and-Surveys",
      "category_id": 51353855440281,
      "position": 12,
      "sorting": "manual",
      "created_at": "2022-07-27T10:48:20Z",
      "updated_at": "2025-12-03T10:27:11Z",
      "name": "Forms and Surveys",
      "description": "",
      "locale": "id",
      "source_locale": "id",
      "outdated": false,
      "parent_section_id": null,
      "theme_template": "section_page"
    },
    {
      "id": 12588092552601,
      "url": "https://talentabymekari.zendesk.com/api/v2/help_center/id/sections/12588092552601.json",
      "html_url": "https://help-center.talenta.co/hc/id/sections/12588092552601-For-Employee",
      "category_id": 12587872936985,
      "position": 13,
      "sorting": "manual",
      "created_at": "2022-11-17T05:03:59Z",
      "updated_at": "2026-02-16T07:39:12Z",
      "name": "For Employee",
      "description": "",
      "locale": "id",
      "source_locale": "id",
      "outdated": false,
      "parent_section_id": null,
      "theme_template": "section_page"
    },
    {
      "id": 8907899639961,
      "url": "https://talentabymekari.zendesk.com/api/v2/help_center/id/sections/8907899639961.json",
      "html_url": "https://help-center.talenta.co/hc/id/sections/8907899639961-Document-Templates",
      "category_id": 51353855440281,
      "position": 13,
      "sorting": "manual",
      "created_at": "2022-07-27T10:48:03Z",
      "updated_at": "2025-12-30T10:51:44Z",
      "name": "Document Templates",
      "description": "",
      "locale": "id",
      "source_locale": "id",
      "outdated": false,
      "parent_section_id": null,
      "theme_template": "section_page"
    },
    {
      "id": 12588053706521,
      "url": "https://talentabymekari.zendesk.com/api/v2/help_center/id/sections/12588053706521.json",
      "html_url": "https://help-center.talenta.co/hc/id/sections/12588053706521-Mobile-App",
      "category_id": 12587872936985,
      "position": 14,
      "sorting": "manual",
      "created_at": "2022-11-17T05:03:21Z",
      "updated_at": "2026-02-16T07:39:12Z",
      "name": "Mobile App",
      "description": "",
      "locale": "id",
      "source_locale": "id",
      "outdated": false,
      "parent_section_id": null,
      "theme_template": "section_page"
    },
    {
      "id": 12588090766489,
      "url": "https://talentabymekari.zendesk.com/api/v2/help_center/id/sections/12588090766489.json",
      "html_url": "https://help-center.talenta.co/hc/id/sections/12588090766489-Performance-Management",
      "category_id": 12587872936985,
      "position": 15,
      "sorting": "manual",
      "created_at": "2022-11-17T05:03:45Z",
      "updated_at": "2026-02-16T07:39:12Z",
      "name": "Performance Management",
      "description": "",
      "locale": "id",
      "source_locale": "id",
      "outdated": false,
      "parent_section_id": null,
      "theme_template": "section_page"
    },
    {
      "id": 50540630177305,
      "url": "https://talentabymekari.zendesk.com/api/v2/help_center/id/sections/50540630177305.json",
      "html_url": "https://help-center.talenta.co/hc/id/sections/50540630177305-Case-Study-Performance-Appraisal",
      "category_id": 12587872936985,
      "position": 16,
      "sorting": "manual",
      "created_at": "2025-09-09T08:32:37Z",
      "updated_at": "2026-02-16T07:39:12Z",
      "name": "Case Study - Performance Appraisal",
      "description": "",
      "locale": "id",
      "source_locale": "id",
      "outdated": false,
      "parent_section_id": null,
      "theme_template": "section_page"
    },
    {
      "id": 51033794220569,
      "url": "https://talentabymekari.zendesk.com/api/v2/help_center/id/sections/51033794220569.json",
      "html_url": "https://help-center.talenta.co/hc/id/sections/51033794220569-Case-Study-Contract-and-Probation",
      "category_id": 12587872936985,
      "position": 17,
      "sorting": "manual",
      "created_at": "2025-09-26T07:12:45Z",
      "updated_at": "2026-02-16T07:39:12Z",
      "name": "Case Study - Contract and Probation",
      "description": "",
      "locale": "id",
      "source_locale": "id",
      "outdated": false,
      "parent_section_id": null,
      "theme_template": "section_page"
    },
    {
      "id": 52408268419097,
      "url": "https://talentabymekari.zendesk.com/api/v2/help_center/id/sections/52408268419097.json",
      "html_url": "https://help-center.talenta.co/hc/id/sections/52408268419097-Case-Study-Talent-Management",
      "category_id": 12587872936985,
      "position": 18,
      "sorting": "manual",
      "created_at": "2025-11-13T09:01:31Z",
      "updated_at": "2026-02-16T07:39:12Z",
      "name": "Case Study - Talent Management",
      "description": "",
      "locale": "id",
      "source_locale": "id",
      "outdated": false,
      "parent_section_id": null,
      "theme_template": "section_page"
    },
    {
      "id": 52967606700697,
      "url": "https://talentabymekari.zendesk.com/api/v2/help_center/id/sections/52967606700697.json",
      "html_url": "https://help-center.talenta.co/hc/id/sections/52967606700697-Case-Study-Recruitment",
      "category_id": 12587872936985,
      "position": 19,
      "sorting": "manual",
      "created_at": "2025-12-02T12:49:09Z",
      "updated_at": "2026-02-16T07:39:12Z",
      "name": "Case Study - Recruitment",
      "description": "",
      "locale": "id",
      "source_locale": "id",
      "outdated": false,
      "parent_section_id": null,
      "theme_template": "section_page"
    }
  ],
  "page": 2,
  "previous_page": "https://help-center.talenta.co/api/v2/help_center/id/sections.json?page=1&per_page=100",
  "next_page": null,
  "per_page": 100,
  "page_count": 2,
  "count": 128,
  "sort_by": "position",
  "sort_order": "asc"
}